<?xml version="1.0" encoding="UTF-8" standalone="no"?>
<!-- Created with Inkscape (http://www.inkscape.org/) -->

<svg
   xmlns:dc="http://purl.org/dc/elements/1.1/"
   xmlns:cc="http://creativecommons.org/ns#"
   xmlns:rdf="http://www.w3.org/1999/02/22-rdf-syntax-ns#"
   xmlns:svg="http://www.w3.org/2000/svg"
   xmlns="http://www.w3.org/2000/svg"
   xmlns:sodipodi="http://sodipodi.sourceforge.net/DTD/sodipodi-0.dtd"
   xmlns:inkscape="http://www.inkscape.org/namespaces/inkscape"
   version="1.1"
   id="svg64"
   width="58.915447"
   height="553.91547"
   viewBox="0 0 58.915447 553.91547"
   sodipodi:docname="egyeb.svg"
   inkscape:version="0.92.2 5c3e80d, 2017-08-06">
  <metadata
     id="metadata70">
    <rdf:RDF>
      <cc:Work
         rdf:about="">
        <dc:format>image/svg+xml</dc:format>
        <dc:type
           rdf:resource="http://purl.org/dc/dcmitype/StillImage" />
        <dc:title></dc:title>
      </cc:Work>
    </rdf:RDF>
  </metadata>
  <defs
     id="defs68">
    <marker
       inkscape:stockid="Arrow2Send"
       orient="auto"
       refY="0"
       refX="0"
       id="marker5184"
       style="overflow:visible"
       inkscape:isstock="true">
      <path
         id="path5182"
         style="fill:#1e1e1e;fill-opacity:1;fill-rule:evenodd;stroke:#1e1e1e;stroke-width:0.625;stroke-linejoin:round;stroke-opacity:1"
         d="M 8.7185878,4.0337352 -2.2072895,0.01601326 8.7185884,-4.0017078 c -1.7454984,2.3720609 -1.7354408,5.6174519 -6e-7,8.035443 z"
         transform="matrix(-0.3,0,0,-0.3,0.69,0)"
         inkscape:connector-curvature="0" />
    </marker>
    <marker
       inkscape:stockid="Arrow2Send"
       orient="auto"
       refY="0"
       refX="0"
       id="Arrow2Send"
       style="overflow:visible"
       inkscape:isstock="true">
      <path
         id="path4697"
         style="fill:#009fe3;fill-opacity:1;fill-rule:evenodd;stroke:#009fe3;stroke-width:0.625;stroke-linejoin:round;stroke-opacity:1"
         d="M 8.7185878,4.0337352 -2.2072895,0.01601326 8.7185884,-4.0017078 c -1.7454984,2.3720609 -1.7354408,5.6174519 -6e-7,8.035443 z"
         transform="matrix(-0.3,0,0,-0.3,0.69,0)"
         inkscape:connector-curvature="0" />
    </marker>
    <marker
       inkscape:stockid="Arrow1Send"
       orient="auto"
       refY="0"
       refX="0"
       id="marker5112"
       style="overflow:visible"
       inkscape:isstock="true">
      <path
         id="path5110"
         d="M 0,0 5,-5 -12.5,0 5,5 Z"
         style="fill:#009fe3;fill-opacity:1;fill-rule:evenodd;stroke:#009fe3;stroke-width:1.00000003pt;stroke-opacity:1"
         transform="matrix(-0.2,0,0,-0.2,-1.2,0)"
         inkscape:connector-curvature="0" />
    </marker>
    <marker
       inkscape:stockid="Arrow1Send"
       orient="auto"
       refY="0"
       refX="0"
       id="Arrow1Send"
       style="overflow:visible"
       inkscape:isstock="true">
      <path
         id="path4679"
         d="M 0,0 5,-5 -12.5,0 5,5 Z"
         style="fill:#009fe3;fill-opacity:1;fill-rule:evenodd;stroke:#009fe3;stroke-width:1.00000003pt;stroke-opacity:1"
         transform="matrix(-0.2,0,0,-0.2,-1.2,0)"
         inkscape:connector-curvature="0" />
    </marker>
    <marker
       inkscape:stockid="Arrow1Lend"
       orient="auto"
       refY="0"
       refX="0"
       id="Arrow1Lend"
       style="overflow:visible"
       inkscape:isstock="true">
      <path
         id="path4667"
         d="M 0,0 5,-5 -12.5,0 5,5 Z"
         style="fill:#009fe3;fill-opacity:1;fill-rule:evenodd;stroke:#009fe3;stroke-width:1.00000003pt;stroke-opacity:1"
         transform="matrix(-0.8,0,0,-0.8,-10,0)"
         inkscape:connector-curvature="0" />
    </marker>
  </defs>
  <sodipodi:namedview
     pagecolor="#ffffff"
     bordercolor="#666666"
     borderopacity="1"
     objecttolerance="10"
     gridtolerance="10"
     guidetolerance="10"
     inkscape:pageopacity="0"
     inkscape:pageshadow="2"
     inkscape:window-width="1366"
     inkscape:window-height="680"
     id="namedview66"
     showgrid="false"
     fit-margin-top="0"
     fit-margin-left="0"
     fit-margin-right="0"
     fit-margin-bottom="0"
     inkscape:zoom="0.51317716"
     inkscape:cx="-322.71222"
     inkscape:cy="369.94173"
     inkscape:window-x="0"
     inkscape:window-y="27"
     inkscape:window-maximized="1"
     inkscape:current-layer="svg64" />
  <path
     style="fill:none;fill-rule:evenodd;stroke:#1e1e1e;stroke-width:15;stroke-linecap:butt;stroke-linejoin:miter;stroke-miterlimit:4.1500001;stroke-dasharray:none;stroke-opacity:1"
     d="M 29.457724,523.00104 V 155.90778"
     id="path4647"
     inkscape:connector-curvature="0" />
  <circle
     style="opacity:1;vector-effect:none;fill:#ffffff;fill-opacity:1;stroke:#1e1e1e;stroke-width:10;stroke-linecap:butt;stroke-linejoin:round;stroke-miterlimit:4;stroke-dasharray:none;stroke-dashoffset:0;stroke-opacity:1"
     id="path74"
     cx="29.457724"
     cy="524.45776"
     r="24.457724" />
  <circle
     style="opacity:1;fill:#ffffff;fill-opacity:1;stroke:#1e1e1e;stroke-width:10;stroke-linejoin:round;stroke-miterlimit:4;stroke-dasharray:none;stroke-dashoffset:0;stroke-opacity:1"
     id="path74-5"
     cx="29.457724"
     cy="359.4577"
     r="24.457724" />
  <circle
     style="opacity:1;fill:#ffffff;fill-opacity:1;stroke:#1e1e1e;stroke-width:10;stroke-linejoin:round;stroke-miterlimit:4;stroke-dasharray:none;stroke-dashoffset:0;stroke-opacity:1"
     id="path74-5-3"
     cx="29.457724"
     cy="194.45773"
     r="24.457724" />
  <circle
     style="opacity:1;fill:#ffffff;fill-opacity:1;stroke:#1e1e1e;stroke-width:10;stroke-linejoin:round;stroke-miterlimit:4;stroke-dasharray:none;stroke-dashoffset:0;stroke-opacity:1"
     id="path74-5-3-5"
     cx="29.457724"
     cy="29.457724"
     r="24.457724" />
  <path
     style="fill:none;fill-rule:evenodd;stroke:#1e1e1e;stroke-width:15;stroke-linecap:butt;stroke-linejoin:miter;stroke-miterlimit:4.1500001;stroke-dasharray:7.5, 7.50000000000000000;stroke-dashoffset:0;stroke-opacity:1;marker-end:url(#marker5184)"
     d="M 29.529787,156.92901 V 79.01091"
     id="path4647-2"
     inkscape:connector-curvature="0" />
</svg>
